8.39190193942
11.5463803108
9.57776259456
12.4014221747
13.8433526241
11.4616742607
9.80692202776
10.1861950796
5.43071790051
9.85244463778
11.5625307028
10.4195880781
6.09442173774
10.276071669
13.6252535406
8.43337461205
13.5837471803
11.0882239554
9.17673468974
11.0425604777
10.0477371944
12.0428022054
10.9192802182
7.47012247808
10.8754823587
6.66142648591
5.94593429394
7.03121089515
9.48036844049
11.2526800694
13.2128295922
9.92863863274
13.7944129542
8.25622959013
8.62287164373
7.1273829778
5.62529715751
7.30088020765
8.56224309889
12.8424649815
12.9466087192
14.0932945243
8.1964933862
9.54655857014
8.47944271307
13.9702730656
6.71709006468
12.1303610914
6.75006794492
13.2136737547
12.2628176519
7.60492425086
11.1673757471
8.68465084066
11.9827313936
8.36235880382
9.23290588061
7.09186322422
6.87672751021
7.05367661103
12.2264176055
10.4815647486
8.40768443536
9.51222604354
5.35465088895
9.17973675153
13.2656268265
6.69161579375
12.9280064419
9.82028676497
7.08455158631
8.25959054024
5.84240406503
5.03904638397
6.53894016004
13.6947497833
13.0281521348
5.99704599471
12.091486241
13.6592902297
8.15445104913
9.75206552699
10.1716072703
8.38011647881
8.4483264129
9.84168148483
11.9144814036
11.5025033963
9.13461905929
11.3512409731
9.11706313262
11.416273087
9.72417071645
14.7966564027
11.8096533314
8.49501843433
12.1910489817
7.9414858495
7.50815631276
9.37221697878
