229.35
125.68
162.69
189.34
204.55
231.27
128.07
156.46
144.76
210.48
202.55
326.79
418.23
440.19
114.11
94.08
330.22
355.93
55.21
52.59
75.76
72.88
88.06
70.64
128.12
191.18
83.56
53.52
45.02
56.91
68.65
58.07
49.43
49.42
49.77
75.27
86.92
146.65
45.87
69.26
55.05
84.05
65.52
45.10
98.69
137.18
134.10
51.51
50.51
58.93
53.04
57.49
53.31
46.74
97.65
63.36
48.40
95.43
123.01
71.35
61.44
49.05
72.77
121.66
108.38
48.31
50.59
47.36
44.66
71.71
103.09
108.97
130.24
90.80
105.57
130.28
180.24
97.13
63.68
50.38
53.37
70.05
65.90
76.81
53.14
51.27
54.49
52.15
43.59
53.44
74.45
64.81
64.35
123.35
90.23
51.67
52.33
62.37
50.87
70.79
57.95
84.61
84.07
81.75
71.04
48.79
52.28
66.42
50.97
52.46
49.60
79.62
55.78
78.27
56.38
61.00
108.75
87.74
78.50
49.82
93.34
87.97
114.39
47.24
49.72
46.67
72.88
48.52
44.63
53.35
42.39
50.75
59.71
51.32
62.12
46.40
51.90
53.30
53.74
47.23
58.74
53.27
72.00
52.30
50.86
50.29
52.39
47.00
52.93
59.34
56.06
56.63
53.59
65.99
54.52
48.75
54.30
70.06
105.14
120.29
79.47
47.53
53.45
54.18
53.35
81.08
83.36
54.92
43.84
47.64
58.59
76.50
45.49
55.23
51.98
46.92
70.39
61.16
51.61
49.61
49.89
51.69
52.95
47.84
51.14
49.41
56.86
55.62
45.60
48.95
46.59
51.73
49.25
49.14
43.40
45.01
53.85
50.77
46.17
48.99
