1519554079.4
1519554079.57
1519554079.7
1519554079.74
1519554079.82
1519554079.84
1519554079.87
1519554079.96
1519554079.99
1519554080.02
1519554080.04
1519554080.04
1519554080.1
1519554080.16
1519554080.21
1519554080.24
1519554080.29
1519554080.31
1519554080.33
1519554080.5
1519554080.53
1519554080.57
1519554080.59
1519554080.61
1519554080.69
1519554080.87
1519554080.95
1519554080.99
1519554081.02
1519554081.18
1519554081.19
1519554081.21
1519554081.24
1519554081.34
1519554081.36
1519554081.42
1519554081.48
1519554081.55
1519554081.61
1519554081.63
1519554081.63
1519554081.65
1519554081.65
1519554081.69
1519554081.75
1519554081.91
1519554081.94
1519554082.23
1519554082.28
1519554082.32
1519554082.32
1519554082.35
1519554082.39
1519554082.41
1519554082.5
1519554082.55
1519554082.58
1519554082.61
1519554082.63
1519554082.65
1519554082.66
1519554082.7
1519554082.78
1519554082.79
1519554082.81
1519554082.87
1519554082.87
1519554082.92
1519554082.97
1519554083.01
1519554083.03
1519554083.07
1519554083.1
1519554083.12
1519554083.16
1519554083.18
1519554083.23
1519554083.3
1519554083.3
1519554083.31
1519554083.32
1519554083.32
1519554083.34
1519554083.57
1519554083.58
1519554083.65
1519554083.69
1519554083.74
1519554083.79
1519554083.81
1519554083.86
1519554083.87
1519554083.88
1519554083.95
1519554084.01
1519554084.02
1519554084.05
1519554084.06
1519554084.16
1519554084.21
1519554084.35
1519554084.39
1519554084.43
1519554084.52
1519554084.53
1519554084.56
1519554084.59
1519554084.63
1519554084.71
1519554084.75
1519554084.78
1519554084.89
1519554085.09
1519554085.13
1519554085.15
1519554085.17
1519554085.18
1519554085.26
1519554085.4
1519554085.56
1519554085.64
1519554085.71
1519554085.72
1519554085.82
1519554085.95
1519554086.03
1519554086.13
1519554086.15
1519554086.19
1519554086.21
1519554086.23
1519554086.24
1519554086.25
1519554086.31
1519554086.37
1519554086.38
1519554086.55
1519554086.57
1519554086.61
1519554086.61
1519554086.69
1519554086.74
1519554086.78
1519554086.79
1519554086.81
1519554086.95
1519554086.99
1519554087.01
1519554087.03
1519554087.07
1519554087.07
1519554087.1
1519554087.19
1519554087.22
1519554087.3
1519554087.32
1519554087.36
1519554087.37
1519554087.38
1519554087.42
1519554087.64
1519554087.65
1519554087.65
1519554087.69
1519554087.82
1519554087.9
1519554087.95
1519554087.99
1519554088.0
1519554088.06
1519554088.12
1519554088.13
1519554088.16
1519554088.19
1519554088.2
1519554088.27
1519554088.28
1519554088.3
1519554088.33
1519554088.33
1519554088.35
1519554088.45
1519554088.46
1519554088.48
1519554088.49
1519554088.51
1519554088.64
1519554088.67
1519554088.74
1519554088.77
1519554088.9
1519554088.92
1519554088.93
1519554089.08
1519554089.15
1519554089.17
1519554089.19
1519554089.34
1519554089.38
1519554089.38
1519554089.46
1519554089.51
1519554089.58
1519554089.66
1519554089.71
1519554089.76
1519554089.78
1519554089.91
1519554089.92
1519554089.98
1519554090.14
1519554090.21
1519554090.67
1519554090.71
1519554090.95
1519554090.96
1519554091.03
1519554091.03
1519554091.06
1519554091.07
1519554091.11
1519554091.2
1519554091.26
1519554091.36
1519554091.37
1519554091.42
1519554091.46
1519554091.48
1519554091.51
1519554091.65
1519554091.66
1519554091.67
1519554091.7
1519554091.79
1519554091.97
1519554091.98
1519554092.01
1519554092.04
1519554092.15
1519554092.22
1519554092.25
1519554092.27
1519554092.29
1519554092.42
1519554092.43
1519554092.46
1519554092.48
1519554092.48
1519554092.49
1519554092.55
1519554092.58
1519554092.71
1519554092.72
1519554092.74
1519554092.79
1519554092.88
1519554092.89
1519554092.96
1519554093.21
1519554093.22
1519554093.29
1519554093.36
1519554093.48
1519554093.49
1519554093.49
1519554093.57
1519554093.58
1519554093.58
1519554093.6
1519554093.85
1519554093.88
1519554093.89
1519554093.97
1519554093.99
1519554094.06
1519554094.09
1519554094.16
1519554094.25
1519554094.3
1519554094.38
1519554094.4
1519554094.41
1519554094.55
1519554094.57
1519554094.57
1519554094.59
1519554094.75
1519554094.81
1519554094.83
1519554094.86
1519554094.88
1519554094.88
1519554094.9
1519554094.95
1519554095.03
1519554095.21
1519554095.22
1519554095.35
1519554095.39
1519554095.42
1519554095.44
1519554095.45
1519554095.57
1519554095.59
1519554095.71
1519554095.72
1519554095.77
1519554095.87
1519554095.87
1519554095.91
1519554095.94
1519554095.97
1519554095.98
1519554096.0
1519554096.01
1519554096.02
1519554096.07
1519554096.12
1519554096.2
1519554096.35
1519554096.6
1519554096.63
1519554096.68
1519554096.77
1519554096.79
1519554096.79
1519554096.84
1519554096.84
1519554096.85
1519554096.94
1519554097.02
1519554097.15
1519554097.17
1519554097.21
1519554097.42
1519554097.5
1519554097.56
1519554097.74
1519554097.76
1519554097.78
1519554097.96
1519554097.98
1519554098.03
1519554098.04
1519554098.17
1519554098.17
1519554098.19
1519554098.19
1519554098.3
1519554098.32
1519554098.32
1519554098.4
1519554098.85
1519554099.07
1519554099.08
1519554099.09
1519554099.14
1519554099.2
1519554099.26
1519554099.46
1519554099.49
1519554099.55
1519554099.56
1519554099.57
1519554099.6
1519554099.61
1519554099.61
1519554099.71
1519554099.75
1519554099.82
1519554099.84
1519554099.86
1519554099.94
1519554099.95
1519554099.96
1519554099.99
1519554100.0
1519554100.05
1519554100.07
1519554100.11
1519554100.15
1519554100.2
1519554100.21
1519554100.23
1519554100.28
1519554100.3
1519554100.31
1519554100.33
1519554100.37
1519554100.39
1519554100.47
1519554100.49
1519554100.51
1519554100.51
1519554100.52
1519554100.56
1519554100.67
1519554100.68
1519554100.7
1519554100.71
1519554100.73
1519554100.79
1519554100.79
1519554100.8
1519554100.9
1519554100.91
1519554101.0
1519554101.03
1519554101.16
1519554101.22
1519554101.32
1519554101.38
1519554101.47
1519554101.52
1519554101.56
1519554101.62
1519554101.71
1519554101.72
1519554101.75
1519554101.76
1519554101.79
1519554101.87
1519554101.88
1519554101.89
1519554101.94
1519554101.95
1519554101.98
1519554102.03
1519554102.17
1519554102.2
1519554102.27
1519554102.28
1519554102.28
1519554102.3
1519554102.37
1519554102.38
1519554102.38
1519554102.39
1519554102.46
1519554102.51
1519554102.56
1519554102.59
1519554102.63
1519554102.65
1519554102.78
1519554102.78
1519554102.91
1519554102.92
1519554102.93
1519554102.97
1519554103.0
1519554103.0
1519554103.06
1519554103.09
1519554103.12
1519554103.18
1519554103.23
1519554103.25
1519554103.25
1519554103.26
1519554103.3
1519554103.33
1519554103.39
1519554103.41
1519554103.43
1519554103.45
1519554103.47
1519554103.59
1519554103.61
1519554103.77
1519554103.8
1519554103.87
1519554103.9
1519554103.91
1519554103.91
1519554103.92
1519554103.96
1519554104.03
1519554104.09
1519554104.13
1519554104.14
1519554104.15
1519554104.16
1519554104.26
1519554104.31
1519554104.34
1519554104.44
1519554104.45
1519554104.49
1519554104.51
1519554104.57
1519554104.57
1519554104.62
1519554104.84
1519554104.91
1519554104.92
1519554104.97
1519554104.98
1519554104.98
1519554105.0
1519554105.03
1519554105.04
1519554105.23
1519554105.25
1519554105.26
1519554105.27
1519554105.3
1519554105.31
1519554105.4
1519554105.42
1519554105.45
1519554105.49
1519554105.51
1519554105.53
1519554105.54
1519554105.59
1519554105.61
1519554105.69
1519554105.71
1519554105.72
1519554105.74
1519554105.8
1519554105.81
1519554105.83
1519554105.89
1519554105.92
1519554106.0
1519554106.04
1519554106.06
1519554106.08
1519554106.26
1519554106.38
1519554106.45
1519554106.58
1519554106.6
1519554106.64
1519554106.65
1519554106.68
1519554106.7
1519554106.72
1519554106.73
1519554106.87
1519554106.91
1519554106.92
1519554107.0
1519554107.02
1519554107.04
1519554107.16
1519554107.18
1519554107.29
1519554107.32
1519554107.39
1519554107.39
1519554107.39
1519554107.4
1519554107.43
1519554107.44
1519554107.45
1519554107.49
1519554107.51
1519554107.52
1519554107.55
1519554107.61
1519554107.64
1519554107.81
1519554107.82
1519554107.86
1519554107.87
1519554107.9
1519554107.93
1519554108.04
1519554108.06
1519554108.07
1519554108.1
1519554108.15
1519554108.18
1519554108.2
1519554108.22
1519554108.26
1519554108.28
1519554108.29
1519554108.36
1519554108.46
1519554108.47
1519554108.53
1519554108.57
1519554108.58
1519554108.59
1519554108.6
1519554108.62
1519554108.71
1519554108.75
1519554108.77
1519554108.82
1519554108.85
1519554108.94
1519554108.94
1519554108.98
1519554109.04
1519554109.07
1519554109.1
1519554109.13
1519554109.19
1519554109.23
1519554109.49
1519554109.59
1519554109.62
1519554109.62
1519554109.63
1519554109.65
1519554109.66
1519554109.71
1519554109.74
1519554109.78
1519554109.83
1519554109.85
1519554109.86
1519554109.89
1519554110.1
1519554110.17
1519554110.18
1519554110.2
1519554110.22
1519554110.26
1519554110.3
1519554110.3
1519554110.37
1519554110.37
1519554110.44
1519554110.55
1519554110.56
1519554110.6
1519554110.67
1519554110.73
1519554110.8
1519554110.83
1519554110.84
1519554110.89
1519554110.94
1519554110.95
1519554111.01
1519554111.03
1519554111.1
1519554111.11
1519554111.28
1519554111.36
1519554111.37
1519554111.4
1519554111.4
1519554111.41
1519554111.49
1519554111.57
1519554111.58
1519554111.62
1519554111.72
1519554111.73
1519554111.8
1519554111.81
1519554111.86
1519554111.87
1519554111.96
1519554111.97
1519554112.0
1519554112.0
1519554112.12
1519554112.17
1519554112.26
1519554112.46
1519554112.49
1519554112.54
1519554112.63
1519554112.67
1519554112.68
1519554112.8
1519554113.02
1519554113.07
1519554113.11
1519554113.14
1519554113.16
1519554113.17
1519554113.22
1519554113.25
1519554113.29
1519554113.32
1519554113.32
1519554113.33
1519554113.37
1519554113.42
1519554113.51
1519554113.56
1519554113.59
1519554113.61
1519554113.62
1519554113.64
1519554113.73
1519554113.81
1519554113.83
1519554113.89
1519554113.9
1519554113.91
1519554113.96
1519554113.97
1519554114.03
1519554114.04
1519554114.07
1519554114.07
1519554114.16
1519554114.29
1519554114.32
1519554114.36
1519554114.37
1519554114.5
1519554114.52
1519554114.58
1519554114.59
1519554114.61
1519554114.61
1519554114.62
1519554114.73
1519554114.82
1519554114.96
1519554115.04
1519554115.11
1519554115.17
1519554115.2
1519554115.21
1519554115.28
1519554115.31
1519554115.33
1519554115.34
1519554115.46
1519554115.53
1519554115.6
1519554115.61
1519554115.82
1519554115.82
1519554115.86
1519554115.87
1519554115.88
1519554115.88
1519554115.89
1519554115.89
1519554115.94
1519554115.99
1519554116.01
1519554116.04
1519554116.08
1519554116.1
1519554116.23
1519554116.25
1519554116.28
1519554116.31
1519554116.35
1519554116.36
1519554116.39
1519554116.54
1519554116.7
1519554116.71
1519554116.74
1519554116.74
1519554116.81
1519554116.81
1519554116.84
1519554117.02
1519554117.07
1519554117.17
1519554117.18
1519554117.28
1519554117.34
1519554117.35
1519554117.44
1519554117.54
1519554117.58
1519554117.66
1519554117.71
1519554117.72
1519554117.77
1519554117.81
1519554117.82
1519554117.84
1519554117.91
1519554117.93
1519554117.96
1519554117.99
1519554118.01
1519554118.03
1519554118.14
1519554118.17
1519554118.19
1519554118.24
1519554118.26
1519554118.26
1519554118.27
1519554118.35
1519554118.44
1519554118.45
1519554118.46
1519554118.6
1519554118.62
1519554118.65
1519554118.67
1519554118.68
1519554118.75
1519554118.75
1519554118.79
1519554118.87
1519554118.93
1519554118.95
1519554119.01
1519554119.12
1519554119.22
1519554119.24
1519554119.26
1519554119.27
1519554119.3
1519554119.33
1519554119.39
1519554119.46
1519554119.49
1519554119.56
1519554119.58
1519554119.68
1519554119.69
1519554119.72
1519554119.79
1519554119.82
1519554119.86
1519554119.89
1519554120.04
1519554120.21
1519554120.31
1519554120.34
1519554120.35
1519554120.47
1519554120.57
1519554120.65
1519554120.69
1519554120.72
1519554120.74
1519554120.77
1519554120.81
1519554120.85
1519554120.85
1519554120.86
1519554120.86
1519554120.88
1519554121.11
1519554121.13
1519554121.17
1519554121.23
1519554121.28
1519554121.52
1519554121.54
1519554121.6
1519554121.71
1519554121.73
1519554121.8
1519554121.83
1519554121.86
1519554121.89
1519554122.0
1519554122.06
1519554122.12
1519554122.24
1519554122.25
1519554122.34
1519554122.53
1519554122.73
1519554122.77
1519554122.93
1519554123.02
1519554123.06
1519554123.11
1519554123.13
1519554123.26
1519554123.27
1519554123.27
1519554123.32
1519554123.32
1519554123.33
1519554123.36
1519554123.38
1519554123.4
1519554123.42
1519554123.46
1519554123.52
1519554123.68
1519554123.73
1519554123.77
1519554123.87
1519554123.89
1519554123.89
1519554123.92
1519554123.97
1519554123.98
1519554124.03
1519554124.1
1519554124.11
1519554124.13
1519554124.17
1519554124.19
1519554124.2
1519554124.23
1519554124.3
1519554124.31
1519554124.37
1519554124.57
1519554124.68
1519554124.7
1519554124.87
1519554124.93
1519554124.95
1519554125.03
1519554125.1
1519554125.3
1519554125.32
1519554125.42
1519554125.44
1519554125.5
1519554125.63
1519554125.64
1519554125.64
1519554125.67
1519554125.68
1519554125.72
1519554125.8
1519554125.82
1519554125.83
1519554125.85
1519554125.93
1519554125.94
1519554125.95
1519554126.03
1519554126.03
1519554126.04
1519554126.11
1519554126.17
1519554126.32
1519554126.35
1519554126.35
1519554126.52
1519554126.55
1519554126.56
1519554126.7
1519554126.77
1519554126.79
1519554126.8
1519554126.86
1519554126.9
1519554126.92
1519554127.02
1519554127.08
1519554127.1
1519554127.12
1519554127.19
1519554127.21
1519554127.35
1519554127.36
1519554127.46
1519554127.48
1519554127.53
1519554127.6
1519554127.6
1519554127.65
1519554127.72
1519554127.82
1519554127.86
1519554127.93
1519554128.08
1519554128.1
1519554128.2
1519554128.24
1519554128.26
1519554128.29
1519554128.31
1519554128.35
1519554128.5
1519554128.74
1519554128.86
1519554128.92
1519554128.97
1519554129.04
1519554129.09
1519554129.12
1519554129.27
1519554129.28
1519554129.3
1519554129.35
1519554129.38
1519554129.39
1519554129.44
1519554129.45
1519554129.45
1519554129.5
1519554129.53
1519554129.65
1519554129.69
1519554129.75
1519554129.76
1519554129.77
