1522098492.72
1522098493.53
1522098494.34
1522098495.16
1522098495.97
1522098496.79
1522098497.6
1522098498.41
1522098499.23
1522098500.05
1522098500.86
1522098501.68
1522098502.49
1522098503.3
1522098504.12
1522098504.93
1522098505.75
1522098506.57
1522098507.39
1522098508.2
1522098509.02
1522098509.83
1522098510.64
1522098511.46
1522098512.27
1522098513.09
1522098513.9
1522098514.72
1522098515.54
1522098516.36
1522098517.17
1522098518.0
1522098518.82
1522098519.63
1522098520.44
1522098521.26
1522098522.07
1522098522.9
1522098523.71
