1:10.0.0.11 10.0.0.11
2:10.0.0.11 10.0.0.11
3:10.0.0.11 10.0.0.11
4:10.0.0.11 10.0.0.11
5:10.0.0.11 10.0.0.11
6:10.0.0.12 10.0.0.12
7:10.0.0.12 10.0.0.12
8:10.0.0.12 10.0.0.12
9:10.0.0.12 10.0.0.12
10:10.0.0.12 10.0.0.12
