L1 s4 eth1 s2 eth1
L2 s4 eth2 s16 eth1
L3 s2 eth2 s23 eth1
L4 s2 eth3 s18 eth1
L5 s2 eth4 s7 eth1
L6 s2 eth5 s13 eth1
L7 s2 eth6 s12 eth1
L8 s7 eth2 s19 eth1
L9 s7 eth3 s6 eth1
L10 s7 eth4 s17 eth1
L11 s7 eth5 s21 eth1
L12 s7 eth6 s1 eth1
L13 s1 eth2 s3 eth1
L14 s1 eth3 s16 eth2
L15 s13 eth2 s17 eth2
L16 s13 eth3 s19 eth2
L17 s13 eth4 s14 eth1
L18 s19 eth3 s6 eth2
L19 s18 eth2 s21 eth2
L20 s21 eth3 s3 eth2
L21 s17 eth3 s23 eth2
L22 s17 eth4 s20 eth1
L23 s17 eth5 s10 eth1
L24 s10 eth2 s12 eth2
L25 s10 eth3 s16 eth3
L26 s10 eth4 s11 eth1
L27 s10 eth5 s3 eth3
L28 s12 eth3 s22 eth1
L29 s3 eth4 s14 eth2
L30 s3 eth5 s11 eth2
L31 s22 eth2 s20 eth2
L32 s20 eth3 s15 eth1
L33 s15 eth2 s9 eth1
L34 s9 eth2 s16 eth4
L35 s9 eth3 s8 eth1
L36 s8 eth2 s5 eth1
L37 s5 eth2 s16 eth5
L38 client1 eth0 s1 eth4
L39 client2 eth0 s1 eth5
L40 client3 eth0 s1 eth6
L41 client4 eth0 s1 eth7
L42 client5 eth0 s1 eth8
L43 server1 eth0 s3 eth6
