125.39
87.90
97.91
93.56
89.59
51.46
52.25
74.55
55.80
53.69
84.17
57.63
67.79
66.78
53.57
53.85
58.06
50.90
56.06
52.84
53.38
53.96
54.00
76.27
56.91
52.74
65.81
53.52
53.80
58.11
52.67
54.57
54.18
54.08
61.37
56.79
68.15
53.89
53.41
54.19
51.56
55.13
55.38
74.25
55.29
62.33
50.67
53.71
56.60
54.17
69.01
86.97
52.28
55.41
55.08
75.55
71.67
55.82
78.69
76.57
55.30
50.83
53.97
62.19
62.25
57.50
52.82
53.62
82.10
91.61
76.65
80.73
157.24
163.00
216.32
231.91
229.38
251.62
300.25
295.08
358.76
266.89
223.17
54.81
56.49
55.22
81.12
52.52
52.23
52.90
53.08
74.36
75.21
102.82
54.64
58.18
56.18
53.96
53.29
54.37
52.53
53.97
71.01
55.26
54.74
84.64
54.53
52.36
58.98
52.95
54.02
53.13
57.03
55.64
53.11
80.14
56.21
81.33
86.84
112.05
132.76
155.65
106.10
104.81
52.87
54.08
52.61
52.24
52.53
56.77
51.23
57.45
53.48
53.76
69.36
86.82
54.47
78.82
51.77
55.10
64.26
82.63
58.17
54.09
52.29
52.93
82.29
100.37
54.24
80.74
52.90
55.00
78.81
57.17
53.19
53.30
58.84
52.47
53.65
52.68
77.07
96.90
71.06
66.50
76.33
62.51
54.12
56.09
53.60
51.49
54.23
78.05
60.12
85.55
53.86
56.15
53.07
51.57
58.36
87.73
53.02
53.09
58.03
55.76
56.55
52.28
57.65
53.65
54.44
83.56
53.46
52.90
58.09
54.34
82.41
51.65
56.72
53.83
54.02
56.93
