mgr16 s9 10
mgr16 s8 20
mgr16 s3 20
mgr16 s2 20
mgr16 s1 10
mgr16 s7 20
mgr16 s6 30
mgr16 s5 10
mgr16 s4 10
mgr16 s19 30
mgr16 s18 30
mgr16 s13 30
mgr16 s12 20
mgr16 s11 20
mgr16 s10 10
mgr16 s17 20
mgr16 s16 5
mgr16 s15 20
mgr16 s14 30
mgr16 s22 30
mgr16 s23 30
mgr16 s20 30
mgr16 s21 30
