9.37221697878
7.50815631276
7.9414858495
12.1910489817
8.49501843433
11.8096533314
14.7966564027
9.72417071645
11.416273087
9.11706313262
11.3512409731
9.13461905929
11.5025033963
11.9144814036
9.84168148483
8.4483264129
8.38011647881
10.1716072703
9.75206552699
8.15445104913
13.6592902297
12.091486241
5.99704599471
13.0281521348
13.6947497833
6.53894016004
5.03904638397
5.84240406503
8.25959054024
7.08455158631
9.82028676497
12.9280064419
6.69161579375
13.2656268265
9.17973675153
5.35465088895
9.51222604354
8.40768443536
10.4815647486
12.2264176055
7.05367661103
6.87672751021
7.09186322422
9.23290588061
8.36235880382
11.9827313936
8.68465084066
11.1673757471
7.60492425086
12.2628176519
13.2136737547
6.75006794492
12.1303610914
6.71709006468
13.9702730656
8.47944271307
9.54655857014
8.1964933862
14.0932945243
12.9466087192
12.8424649815
8.56224309889
7.30088020765
5.62529715751
7.1273829778
8.62287164373
8.25622959013
13.7944129542
9.92863863274
13.2128295922
11.2526800694
9.48036844049
7.03121089515
5.94593429394
6.66142648591
10.8754823587
7.47012247808
10.9192802182
12.0428022054
10.0477371944
11.0425604777
9.17673468974
11.0882239554
13.5837471803
8.43337461205
13.6252535406
10.276071669
6.09442173774
10.4195880781
11.5625307028
9.85244463778
5.43071790051
10.1861950796
9.80692202776
11.4616742607
13.8433526241
12.4014221747
9.57776259456
11.5463803108
8.39190193942
