7.75596003364
8.44482631523
14.1686676426
14.888704041
14.9305788569
10.861258795
12.6065765056
5.51272953
10.5033741679
7.41997731282
12.992698051
14.6786536438
8.65765901943
14.1456523564
12.1149783959
7.17337129005
5.59578200122
13.0416544519
12.4791913837
7.3190375961
14.7195904256
5.27442823539
5.67370598879
7.38308647022
10.3754126653
8.63204622775
13.0869980048
6.7166843061
5.07120562978
12.0936926394
10.9956914625
6.03219586008
10.9015668473
14.5855210208
13.2131149138
6.53661898159
9.08448730925
14.750177642
7.99287661283
7.29019213032
13.2555713293
14.8252840832
6.43045567885
5.3708534071
9.9380116571
7.21039756698
6.69491400948
6.58168906955
9.77271767936
10.3477437411
6.23704492829
11.0513291525
6.94836446836
7.3661918076
13.1002202087
10.3925825509
6.4559857545
14.0172059002
5.06977871539
11.0114739304
7.66182485214
14.9969719942
14.3171344999
13.8378483944
7.98212511158
6.55891724617
13.1137538899
5.88186230393
9.92503688627
11.0644627144
6.67532531669
12.507869594
9.53738260675
14.6094999346
13.9966569083
11.4257353513
11.0339892737
9.97928761062
9.6454552623
8.72116482001
13.4594307588
14.8142843031
9.97140539789
9.43804531258
11.0744497292
12.9695741861
11.2387694568
10.9978633837
13.8208020718
7.49022604953
11.8207793172
13.1840020115
14.8900482316
10.3452061675
5.04903203334
7.10185094551
9.37325648188
8.21426974701
8.79917637995
7.37155766345
